{
  "targets": {
    "build": {
      "dependsOn": [
        { "projects": ["appwrite"], "target": "build", "params": "ignore" },
        { "dependencies": true, "target": "build", "params": "ignore" }
      ]
    }
  }
}
